<?xml version="1.0" encoding="utf-8"?>
<!-- Generator: Adobe Illustrator 23.0.1, SVG Export Plug-In . SVG Version: 6.00 Build 0)  -->
<svg version="1.1" id="Layer_1" xmlns="http://www.w3.org/2000/svg" xmlns:xlink="http://www.w3.org/1999/xlink" x="0px" y="0px"
	 viewBox="0 0 90.7 91.1" style="enable-background:new 0 0 90.7 91.1;" xml:space="preserve">
<title>television</title>
<g id="Group-12">
	<g id="Group-3">
		<g>
			<path id="Fill-1" style="fill-rule:evenodd;clip-rule:evenodd;fill:#285649;" d="M88.7,79.1c0,2-1.6,3.6-3.6,3.6H5.6
				c-0.5,0-1-0.1-1.4-0.3c-0.9-0.4-1.6-1.1-1.9-1.9C2.1,80.1,2,79.6,2,79.1V30.4c0-2,1.6-3.6,3.6-3.6c0,0,0,0,0,0h26.7l0.3-0.4
				c1.9-1.9,4.3-3.2,6.9-3.7l1.7-0.3l1-0.2l0.3,0l0,0c1.9-0.2,3.9-0.2,5.8,0l0,0h0.2l1,0.2l1.8,0.3c2.6,0.5,4.9,1.8,6.8,3.7l0.3,0.4
				h26.8c2,0,3.6,1.6,3.6,3.6V79.1z M35.1,7.5c-0.2,0.2-0.5,0.5-0.8,0.6c-0.3,0.2-0.6,0.3-0.9,0.4c-0.2,0-0.4,0.1-0.6,0.1
				c-1.8,0-3.2-1.5-3.2-3.3S31,2,32.8,2C34.6,2,36,3.5,36,5.2C36,6.1,35.7,6.9,35.1,7.5z M58,2c1.8,0,3.2,1.5,3.2,3.2
				S59.8,8.5,58,8.5l0,0c-0.2,0-0.4,0-0.6-0.1c-0.3-0.1-0.6-0.2-0.9-0.4c-1.6-0.9-2.1-2.8-1.3-4.4C55.7,2.6,56.8,2,58,2z M85.1,24.8
				H59.3c-2.1-2-4.7-3.4-7.5-4l-1.2-0.2l5.8-10.3c0.5,0.2,1.1,0.3,1.6,0.3c2.9,0,5.4-2.3,5.4-5.3s-2.3-5.4-5.3-5.4
				c-2.9,0-5.4,2.3-5.4,5.3c0,1.6,0.7,3.1,1.9,4.1l-6.1,10.9c-2.1-0.2-4.2-0.2-6.3,0l0,0L36.1,9.2c1.2-1,1.9-2.5,1.9-4
				c0-2.9-2.3-5.4-5.3-5.4s-5.4,2.3-5.4,5.3c0,2.9,2.3,5.4,5.3,5.4c0.6,0,1.2-0.1,1.8-0.3l5.8,10.3L39,20.7c-2.9,0.6-5.5,2-7.7,4
				H5.6c-3.1,0-5.6,2.5-5.6,5.6c0,0,0,0,0,0v48.7c0,0.7,0.1,1.5,0.4,2.2c0.6,1.3,1.7,2.4,3,3c0.7,0.3,1.4,0.4,2.2,0.4h12.2l-1.5,5.1
				c-0.1,0.5,0.2,1.1,0.7,1.2c0.1,0,0.2,0,0.3,0c0.5,0,0.9-0.3,1-0.7l1.6-5.6H70l1.6,5.6c0.1,0.4,0.5,0.7,1,0.7c0.1,0,0.2,0,0.3,0
				c0.5-0.1,0.8-0.7,0.7-1.2c0,0,0,0,0,0l-1.6-5h13.1c3.1,0,5.6-2.5,5.6-5.6v0V30.4C90.7,27.3,88.2,24.8,85.1,24.8
				C85.1,24.8,85.1,24.8,85.1,24.8z"/>
		</g>
	</g>
	<path id="Fill-4" style="fill-rule:evenodd;clip-rule:evenodd;fill:#C3DD94;" d="M79.8,41c-1.4,0-2.4-1.1-2.4-2.5
		c0-1.4,1.1-2.4,2.5-2.4c1.3,0,2.4,1.1,2.4,2.4C82.2,39.9,81.1,41,79.8,41C79.8,41,79.8,41,79.8,41 M79.8,34.1c-2.5,0-4.4,2-4.4,4.5
		s2,4.4,4.5,4.4c2.5,0,4.4-2,4.4-4.4C84.2,36.1,82.2,34.1,79.8,34.1C79.8,34.1,79.8,34.1,79.8,34.1"/>
	<path id="Fill-6" style="fill-rule:evenodd;clip-rule:evenodd;fill:#C3DD94;" d="M79.8,52.6c-1.4,0-2.5-1.1-2.5-2.4
		s1.1-2.5,2.4-2.5c1.4,0,2.5,1.1,2.5,2.4c0,0,0,0,0,0C82.2,51.5,81.1,52.6,79.8,52.6 M79.8,45.7c-2.5,0-4.4,2-4.4,4.5s2,4.4,4.5,4.4
		c2.5,0,4.4-2,4.4-4.4C84.2,47.7,82.2,45.7,79.8,45.7C79.8,45.7,79.8,45.7,79.8,45.7"/>
	<path id="Fill-8" style="fill-rule:evenodd;clip-rule:evenodd;fill:#C3DD94;" d="M79.8,72.6c-1.4,0-2.4-1.1-2.4-2.5
		c0-1.4,1.1-2.4,2.5-2.4c1.3,0,2.4,1.1,2.4,2.4C82.2,71.5,81.1,72.6,79.8,72.6C79.8,72.6,79.8,72.6,79.8,72.6 M79.8,65.7
		c-2.5,0-4.4,2-4.4,4.5c0,2.5,2,4.4,4.5,4.4c2.5,0,4.4-2,4.4-4.4C84.2,67.7,82.2,65.7,79.8,65.7C79.8,65.7,79.8,65.7,79.8,65.7"/>
	<path id="Fill-10" style="fill-rule:evenodd;clip-rule:evenodd;fill:#66A579;" d="M69.8,71.8c0,1.8-1.4,3.2-3.2,3.2H14
		c-1.8,0-3.2-1.4-3.2-3.2V37.7c0-1.8,1.4-3.2,3.2-3.2h52.6c1.8,0,3.2,1.4,3.2,3.2V71.8z M66.6,32.5H14c-2.9,0-5.2,2.3-5.2,5.2v34.1
		c0,2.9,2.3,5.2,5.2,5.2h52.6c2.9,0,5.2-2.3,5.2-5.2V37.7C71.8,34.8,69.5,32.5,66.6,32.5z"/>
</g>
</svg>
